module gitlab.com/prarit/jira-raw

go 1.19

require (
	github.com/andygrunwald/go-jira v1.16.0
	github.com/spf13/cobra v1.6.1
	github.com/spf13/viper v1.15.0
	github.com/zalando/go-keyring v0.2.2
	golang.org/x/crypto v0.5.0
)

require (
	github.com/alessio/shellescape v1.4.1 // indirect
	github.com/danieljoos/wincred v1.1.2 // indirect
	github.com/fatih/structs v1.1.0 // indirect
	github.com/fsnotify/fsnotify v1.6.0 // indirect
	github.com/godbus/dbus/v5 v5.1.0 // indirect
	github.com/golang-jwt/jwt/v4 v4.4.3 // indirect
	github.com/google/go-querystring v1.1.0 // indirect
	github.com/hashicorp/hcl v1.0.0 // indirect
	github.com/inconshreveable/mousetrap v1.1.0 // indirect
	github.com/magiconair/properties v1.8.7 // indirect
	github.com/mitchellh/mapstructure v1.5.0 // indirect
	github.com/pelletier/go-toml/v2 v2.0.6 // indirect
	github.com/pkg/errors v0.9.1 // indirect
	github.com/spf13/afero v1.9.3 // indirect
	github.com/spf13/cast v1.5.0 // indirect
	github.com/spf13/jwalterweatherman v1.1.0 // indirect
	github.com/spf13/pflag v1.0.5 // indirect
	github.com/subosito/gotenv v1.4.2 // indirect
	github.com/trivago/tgo v1.0.7 // indirect
	golang.org/x/sys v0.5.0 // indirect
	golang.org/x/term v0.5.0 // indirect
	golang.org/x/text v0.7.0 // indirect
	gopkg.in/ini.v1 v1.67.0 // indirect
	gopkg.in/yaml.v3 v3.0.1 // indirect
)
